{
	"pager": {
		"page": 1,
		"pageCount": 196,
		"total": 9761,
		"pageSize": 50,
		"nextPage": "https://upmb.dev.hispuganda.org/upmb/api/organisationUnits.json?page=2&fields=id%2Cpath%2CdisplayName%2Cchildren%3A%3AisNotEmpty"
	},
	"organisationUnits": [
		{
			"id": "EITWZ2b7fRb",
			"path": "/UqgSgdDNxpA/F1o6qBSx783/It5UGwdHAPF/EITWZ2b7fRb",
			"children": true,
			"displayName": "Kizinda-Kigoma Town Council"
		},
		{
			"id": "ftNNOiF8eLQ",
			"path": "/UqgSgdDNxpA/DWPnYhoqza0/xpIFdCMhVHG/vFat4pU68Gg/ftNNOiF8eLQ",
			"children": false,
			"displayName": "L&S Medical Centre Clinic"
		},
		{
			"id": "SkWKqttPnXq",
			"path": "/UqgSgdDNxpA/Dl9WvtvDs5V/IVuiLJYABw6/beCHk64vc24/SkWKqttPnXq",
			"children": false,
			"displayName": "Mirembe Clinic"
		},
		{
			"id": "QHsCNVmRURq",
			"path": "/UqgSgdDNxpA/yx0ieyZNF0l/B0G9cqixld8/OvshHVjn0lS/QHsCNVmRURq",
			"children": false,
			"displayName": "St. Jude Thaddeos Karungu HC III"
		},
		{
			"id": "O1j4UpKyAcV",
			"path": "/UqgSgdDNxpA/SUvODYOcaVf/O1j4UpKyAcV",
			"children": true,
			"displayName": "1TEST District"
		},
		{
			"id": "atHXbhmWAsh",
			"path": "/UqgSgdDNxpA/Dl9WvtvDs5V/lzWuB6bCQeV/AgiJUzMaGYS/atHXbhmWAsh",
			"children": false,
			"displayName": "303 Brigade HC II"
		},
		{
			"id": "iNLsVN6SOQg",
			"path": "/UqgSgdDNxpA/BD3XaQ7cQAp/W0kQBddyGyh/FH7eT8hveKf/iNLsVN6SOQg",
			"children": false,
			"displayName": "309 Brigade Military Moyo HC III"
		},
		{
			"id": "SU6u279D3JC",
			"path": "/UqgSgdDNxpA/IEU0FjDAhBP/REJuxCmTwXG/l01FDO0PtI0/SU6u279D3JC",
			"children": false,
			"displayName": "3M Mummy's Dom Clinic"
		},
		{
			"id": "W3hXYmtaQ4Q",
			"path": "/UqgSgdDNxpA/jdlbNUwJiKX/aPZzL4CyBTg/agP7sOujwQ7/W3hXYmtaQ4Q",
			"children": false,
			"displayName": "405 Brigade HC III"
		},
		{
			"id": "auzuV39xOTU",
			"path": "/UqgSgdDNxpA/SUvODYOcaVf/aBrjuZk0W31/uMZROveCZt0/auzuV39xOTU",
			"children": false,
			"displayName": "5th Military Division HC IV"
		},
		{
			"id": "ka4wo1bKTx6",
			"path": "/UqgSgdDNxpA/IEU0FjDAhBP/aIahLLmtvgT/RTxq0C3ff1y/ka4wo1bKTx6",
			"children": false,
			"displayName": "6K HC II"
		},
		{
			"id": "kVasRtzumpR",
			"path": "/UqgSgdDNxpA/GIpyzaSuEgM/aXmBzv61LbM/kKEBeO1LL7S/kVasRtzumpR",
			"children": false,
			"displayName": "7 Hills Clinic HC II"
		},
		{
			"id": "g44JyPVuZ8h",
			"path": "/UqgSgdDNxpA/GIpyzaSuEgM/aXmBzv61LbM/FbuhMjEaMXt/g44JyPVuZ8h",
			"children": false,
			"displayName": "A & K Clinic HC II"
		},
		{
			"id": "EDljgyL8rYo",
			"path": "/UqgSgdDNxpA/GIpyzaSuEgM/aXmBzv61LbM/FbuhMjEaMXt/EDljgyL8rYo",
			"children": false,
			"displayName": "AAA Dental & Oral Surgery Clinic HC II"
		},
		{
			"id": "KMKSbxhedfy",
			"path": "/UqgSgdDNxpA/GIpyzaSuEgM/aXmBzv61LbM/zNdkt1W9dcu/KMKSbxhedfy",
			"children": false,
			"displayName": "AAR Buganda Road Branch"
		},
		{
			"id": "FbzPPH8fy5s",
			"path": "/UqgSgdDNxpA/GIpyzaSuEgM/aXmBzv61LbM/kKEBeO1LL7S/FbzPPH8fy5s",
			"children": false,
			"displayName": "AAR Bugolobi Health Care HC II"
		},
		{
			"id": "hE3E3nXNUjX",
			"path": "/UqgSgdDNxpA/GIpyzaSuEgM/aXmBzv61LbM/zNdkt1W9dcu/hE3E3nXNUjX",
			"children": false,
			"displayName": "AAR City Centre HC II"
		},
		{
			"id": "I6QbcVsphVT",
			"path": "/UqgSgdDNxpA/GIpyzaSuEgM/aXmBzv61LbM/zNdkt1W9dcu/I6QbcVsphVT",
			"children": false,
			"displayName": "AAR Clinic Acacia HC II"
		},
		{
			"id": "Ppyz6vwPpKi",
			"path": "/UqgSgdDNxpA/IEU0FjDAhBP/aIahLLmtvgT/RQ4bTHOso6m/Ppyz6vwPpKi",
			"children": false,
			"displayName": "AAR Clinic Bweyogerere HC II"
		},
		{
			"id": "H9VMaF4vdmM",
			"path": "/UqgSgdDNxpA/IEU0FjDAhBP/aIahLLmtvgT/MmY9teDWcvb/H9VMaF4vdmM",
			"children": false,
			"displayName": "AAR Clinic Freedom City HC II"
		},
		{
			"id": "b2LlvIFGc5U",
			"path": "/UqgSgdDNxpA/SUvODYOcaVf/szlrGpmFlu9/LllQ7wFfkGG/b2LlvIFGc5U",
			"children": false,
			"displayName": "AAR Gulu Clinic"
		},
		{
			"id": "pLkoHnX3Ukn",
			"path": "/UqgSgdDNxpA/GIpyzaSuEgM/aXmBzv61LbM/FbuhMjEaMXt/pLkoHnX3Ukn",
			"children": false,
			"displayName": "AAR Kabalagala Clinic HC II"
		},
		{
			"id": "j1gpp563TOQ",
			"path": "/UqgSgdDNxpA/GIpyzaSuEgM/aXmBzv61LbM/kKEBeO1LL7S/j1gpp563TOQ",
			"children": false,
			"displayName": "AAR Ntinda HC II"
		},
		{
			"id": "XpJak3aZzRX",
			"path": "/UqgSgdDNxpA/BD3XaQ7cQAp/iQTVPmAJPkr/BJc6aAKfEdk/XpJak3aZzRX",
			"children": false,
			"displayName": "AIDS Information Centre (Arua) Special Clinic"
		},
		{
			"id": "ndyRWKL0fDH",
			"path": "/UqgSgdDNxpA/Wd1lV9Qdj4o/wRApaxY2zJf/dIryCQvB5SO/ndyRWKL0fDH",
			"children": false,
			"displayName": "AIDS Information Centre (Jinja) Special Clinic"
		},
		{
			"id": "s0sTvb5DnDP",
			"path": "/UqgSgdDNxpA/G0rlphd2tcD/zBIpPzKYFLp/DiPNrbcTMu7/s0sTvb5DnDP",
			"children": false,
			"displayName": "AIDS Information Centre (Kabale) Special Clinic"
		},
		{
			"id": "rxoAz9lkuSi",
			"path": "/UqgSgdDNxpA/GIpyzaSuEgM/aXmBzv61LbM/zNdkt1W9dcu/rxoAz9lkuSi",
			"children": false,
			"displayName": "AIDS Information Centre (Kampala) Special Clinic"
		},
		{
			"id": "b27exHAFNPv",
			"path": "/UqgSgdDNxpA/DWPnYhoqza0/ullSvMrkHdi/siFCXpF47oz/b27exHAFNPv",
			"children": false,
			"displayName": "AIDS Information Centre (Lira) Special Clinic"
		},
		{
			"id": "v9p3jFvYYtP",
			"path": "/UqgSgdDNxpA/Dt6qdenPX1E/ALFFOStwtqW/q0BqaYeLsKz/v9p3jFvYYtP",
			"children": false,
			"displayName": "AIDS Information Centre (Mbale) Special Clinic"
		},
		{
			"id": "sPWbPZtb3ut",
			"path": "/UqgSgdDNxpA/F1o6qBSx783/W7kX446X8Jn/k7Wgi7O0JdY/sPWbPZtb3ut",
			"children": false,
			"displayName": "AIDS Information Centre (Mbarara) Special Clinic"
		},
		{
			"id": "p0gQCb29YsS",
			"path": "/UqgSgdDNxpA/r0GhWtmPHDj/iRUvO30ij3h/c3RuJBL6y2x/p0gQCb29YsS",
			"children": false,
			"displayName": "AIDS Information Centre (Soroti) HC II"
		},
		{
			"id": "idbfwHTDiI5",
			"path": "/UqgSgdDNxpA/GIpyzaSuEgM/aXmBzv61LbM/zNdkt1W9dcu/idbfwHTDiI5",
			"children": false,
			"displayName": "ASG Eye Hospital"
		},
		{
			"id": "J2JiemiIQvD",
			"path": "/UqgSgdDNxpA/r0GhWtmPHDj/cSrCFjPKqcG/y1iun1mJXWa/J2JiemiIQvD",
			"children": false,
			"displayName": "Aakum HC II"
		},
		{
			"id": "aVQCbe80pl7",
			"path": "/UqgSgdDNxpA/r0GhWtmPHDj/zJfpujxC1kD/tt9yUB7IjHC/aVQCbe80pl7",
			"children": false,
			"displayName": "Aarapoo HC III"
		},
		{
			"id": "LBXgpCULyDB",
			"path": "/UqgSgdDNxpA/Dl9WvtvDs5V/a0DfYpC2Rwl/WBLZTH5N3PI/LBXgpCULyDB",
			"children": false,
			"displayName": "Abaase Dispensary Clinic"
		},
		{
			"id": "gqBr1S7L6yG",
			"path": "/UqgSgdDNxpA/IEU0FjDAhBP/aIahLLmtvgT/nLs3FmRSZhO/gqBr1S7L6yG",
			"children": false,
			"displayName": "Abaita Medical Centre Clinic"
		},
		{
			"id": "yDPmjwoOIxi",
			"path": "/UqgSgdDNxpA/DWPnYhoqza0/p7EEgDEX3jT/i8gkuINdorl/yDPmjwoOIxi",
			"children": false,
			"displayName": "Abako HC III"
		},
		{
			"id": "i8gkuINdorl",
			"path": "/UqgSgdDNxpA/DWPnYhoqza0/p7EEgDEX3jT/i8gkuINdorl",
			"children": true,
			"displayName": "Abako Subcounty"
		},
		{
			"id": "etPrOnArvd1",
			"path": "/UqgSgdDNxpA/DWPnYhoqza0/p7EEgDEX3jT/RHEU4J1wJiy/etPrOnArvd1",
			"children": false,
			"displayName": "Abako-Elim HC II"
		},
		{
			"id": "E9a1cflRJZf",
			"path": "/UqgSgdDNxpA/DWPnYhoqza0/Lj8t70RYnEt/FNqGR9apfAN/E9a1cflRJZf",
			"children": false,
			"displayName": "Abala HC III"
		},
		{
			"id": "aQrkHdMfe12",
			"path": "/UqgSgdDNxpA/r0GhWtmPHDj/KOnkIf4N6jA/t89pNBmJnKW/aQrkHdMfe12",
			"children": false,
			"displayName": "Abalang HC II (Anyara Subcounty)"
		},
		{
			"id": "UjMKFe4MIGj",
			"path": "/UqgSgdDNxpA/DWPnYhoqza0/wMQ25dybdgH/lbIyDdBijdD/UjMKFe4MIGj",
			"children": false,
			"displayName": "Abalang HC II (Okwalongwen Subcounty)"
		},
		{
			"id": "xT38Pbk8s4j",
			"path": "/UqgSgdDNxpA/BD3XaQ7cQAp/A4aGXEfdb8P/xT38Pbk8s4j",
			"children": true,
			"displayName": "Abanga Subcounty"
		},
		{
			"id": "hPIXVP3f1nP",
			"path": "/UqgSgdDNxpA/DWPnYhoqza0/xpIFdCMhVHG/amLhY9BnViS/hPIXVP3f1nP",
			"children": false,
			"displayName": "Abanya HC II"
		},
		{
			"id": "IswqGyDbcgm",
			"path": "/UqgSgdDNxpA/r0GhWtmPHDj/TM6ccNxawqy/YjjiR3pf7GD/IswqGyDbcgm",
			"children": false,
			"displayName": "Abarilela HC III"
		},
		{
			"id": "YjjiR3pf7GD",
			"path": "/UqgSgdDNxpA/r0GhWtmPHDj/TM6ccNxawqy/YjjiR3pf7GD",
			"children": true,
			"displayName": "Abarilela Subcounty"
		},
		{
			"id": "eqXcVOLqXPI",
			"path": "/UqgSgdDNxpA/JZhJ50nOirX/O9MoQcpZ4uA/VzNo51e77c5/eqXcVOLqXPI",
			"children": false,
			"displayName": "Abbu Clinic"
		},
		{
			"id": "QfL0LY9NZa1",
			"path": "/UqgSgdDNxpA/GIpyzaSuEgM/aXmBzv61LbM/LYuMx5oPsR5/QfL0LY9NZa1",
			"children": false,
			"displayName": "Abc Clinic HC II"
		},
		{
			"id": "aqVk5wVqyQf",
			"path": "/UqgSgdDNxpA/Dl9WvtvDs5V/ykxQEnZGXkj/eN59rRkxQhi/aqVk5wVqyQf",
			"children": false,
			"displayName": "Abc Maternity Home Clinic"
		},
		{
			"id": "yVYFwnN6Cnd",
			"path": "/UqgSgdDNxpA/JZhJ50nOirX/qKmESX5Owwr/lmgYdspcL6p/yVYFwnN6Cnd",
			"children": false,
			"displayName": "Abednego Medical Centre HC II"
		}
	]
}
